<svg xmlns="http://www.w3.org/2000/svg" xmlns:xlink="http://www.w3.org/1999/xlink" viewBox="0 0 183 46" width="183" height="46">
  <defs>
    <path id="a" d="M0 0h47v46H0z"/>
  </defs>
  <g fill="none" fill-rule="evenodd">
    <mask id="b" fill="#fff">
      <use xlink:href="#a"/>
    </mask>
    <path fill="#4269b2" fill-rule="nonzero" d="M-.02406629 12.1197605v21.7191617c0 1.0604296.58181654 2.0402176 1.52608436 2.5699401l16.28012053 9.1462874c.9449626.5340613 2.1113148.5358505 3.058004.004691.9466891-.5311594 1.5292265-1.5141992 1.5273323-2.5773856V2.97347305c.001974-1.06287523-.5804171-2.04564022-1.5268828-2.57655393-.9464657-.5309137-2.1124998-.52891635-3.0570379.00523657L1.50343373 9.54706587C.55817247 10.0773463-.02406629 11.0582149-.02406629 12.1197605z" mask="url(#b)"/>
    <path fill="#ec72ab" fill-rule="nonzero" d="M24.5829819 2.97347305V42.9824551c0 1.0612326.5817478 2.0419025 1.5265306 2.5723636.9447828.5304612 2.1087397.5300623 3.0531381-.0010462l16.2801205-9.1462875c.9442678-.5297225 1.5260846-1.5095105 1.5260846-2.5699401V12.1197605c.0004294-1.0612613-.5813683-2.042064-1.5260846-2.57269463L29.1626506.40215569c-.9443984-.53110858-2.1083553-.53150746-3.0531381-.0010463-.9447828.53046118-1.5265306 1.51113102-1.5265306 2.57236366z" mask="url(#b)"/>
    <path fill="#ffffff" fill-rule="nonzero" d="M2.20418675 27.8024551c-.46716868.0234132-.76870482.1088024-1.02210844.5164671-.54361446.8704191-2.07536144 1.587964-3.34237951 1.1128143-.13919186-.0719088-.26935602-.159257-.38789157-.2602994l.80834337-.3456886c-.56626506-.3305389-.49548193-.6679641-.17695783-1.0219162.04743039-.0491763.08789846-.1042941.12033133-.1638922.12740963-.2341317.19536144-.6087425.38364457-.678982.4246988-.157006.92301205-.2864671 1.34912651-.2052096 1.16792169.2203593 2.02439759-.3677245 2.92334337-.8897006.48557229-.2823353.98388555-.5508982 1.44114458-.8745509.26890354-.1993701.49861858-.444313.67810241-.7230539.23073103-.3570554.42377057-.7358873.5761747-1.1307185.19394578-.4930539.31427711-1.0122755.49831325-1.5080839.21518073-.5798203.3525-1.2395209.73472892-1.6912575.30153614-.3567066.92584337-.4586227 1.40716867-.6707185.48132531-.2120958 1.02069278-.398024 1.48927711-.6652096.54503011-.3098802.60873491-1.6857485.1061747-2.0989222-.35816265-.2961078-.34400602-.6541916-.31852409-1.0398203.03458129-.2611635.0445324-.5248571.02972891-.7877845-.10192771-.8263473.2576506-1.5025748.99096389-1.8193413.7913554-.3415569 1.7908132-.1377245 2.2650602.4792815.1266766.1602445.2072907.3503693.2335843.5508982.0608735.673473.0906025 1.3497006.1090061 2.0259281-.0105593.1347787-.0679774.2620423-.1628012.3608383-.7573796.8346108-.377982 2.0231737.7191566 2.4432336.8313601.3227857 1.6331303.713483 2.3967169 1.1679042.7474698.4420958.9131024 1.211976.9725602 2.0190419.0418616.4636448.1416951.9205916.2972892 1.3607185.1687025.4578485.367786.9045568.5959939 1.3373054.0724996.1892444.1944875.3568169.3539157.4861677.8734638.5343712 1.7511747 1.0687425 2.6628614 1.5356287.2916265.1487425.6965061.1198204 1.0490061.1184431.3256024 0 .6512048-.0922754.9782229-.1101796.5535241-.0289221.8621385.2272455.9980421.7423353.1019277.3938923.2420783.779521.3921386 1.2560479l.5195482.0605988c-.373735 1.0563473-2.7647892.6500599-3.9058133-.527485-.0169879.0234132-.0523795.0550898-.0467168.067485.6115662 1.1513773.3468373 2.1085629-.5804217 3.0079042-.7403916.7161677-1.3873494 1.5149701-2.5014759 1.694012-.2548193.0385629-.5153012.0454491-.7715362.078503-.3270181.0413174-.6653614.0440719-.6370482.5371258 0 .1019161-.2944578.2754491-.4770783.3208982-.4091265.0908982-.8366566.0964071-1.2514458.1721556-.7205723.1377246-1.4241566.2313773-1.8403614-.5508982-.2590663-.4875449-.6837651-.4586227-1.1141265-.3567065-.8210844.1955688-1.6322591.4297006-2.45192774.6294012-.81966867.1997006-1.60394578.3663473-2.4066265.5508982-.28313253.0647305-.4246988-.0592216-.4473494-.3332935-.02689759-.3195209-.03539157-.6417964-.09343373-.9558083-.03256025-.1721557-.10759037-.4255689-.235-.476527-.67243976-.2754491-1.36611446-.4930539-2.0583735-.7147904-.17271084-.0550898-.41337349.0192814-.54644578-.0716168-1.40858434-.9640718-2.5170482-1.9529341-1.3038253-3.9595808zm5.52108433-3.8962276c-.56626506.8401198-1.04900602 1.5549102-1.54448795 2.2545509-.13246548.1955968-.30207415.3648097-.49972891.4985629-.45018073.2905988-.92442771.5508982-1.37885542.8084431.46009036.1804192.90885542.4049102 1.38451807.5288623.74525209.1975172 1.50150735.3534005 2.26506024.4668862.42469879.0605988.62713855-.218982.56626506-.6280239-.06370482-.4297006-.09343374-.8662874-.18403615-1.2918563-.1741265-.847006-.38364457-1.688503-.60590361-2.6374252h-.00283133zm7.66864462.3016168c-.4855723 1.6320359-.5563555 2.4900599-.3043675 3.4775449.0750301.3002395.0721988.774012.2534036.8566467.2633133.1184431.6710241-.0151497.9994578-.1005389.7998494-.2065868 1.5897892-.4476048 2.5184639-.7134132-.2371158-.0547545-.4706466-.1232804-.6993374-.2052095-.6243072-.2850899-1.2925-.5233533-1.640753-1.1706587-.3652409-.6803593-.7177409-1.3689821-1.1240361-2.1443713h-.0028313zM39.8126807 28.5530539c.5138856-.2258683.9909639-.4641317 1.4949398-.6486826.5577711-.2052096 1.1226205-.4283234 1.6987952-.5219761.8989457-.145988 1.628012.5109581 1.6025301 1.4006587-.012741.4503593-.0523795.9337724-.2321687 1.3373054-.1701621.3354584-.4506981.6059576-.7970181.768503-1.1466867.5302395-2.1971084 1.1665269-3.0224397 2.1347305.2663384.1828176.5211449.381039.7630421.5935928.1118374.1088024.2335844.398024.1896988.4365869-.1783735.1611377-.457259.3980239-.6285542.3525748-.8734638-.2313772-1.6987952.0192814-2.5566867.0688623-.6795181.0385629-1.405753-.1845509-2.0612048-.4228144-.6030723-.218982-1.1325302-.3952695-1.7681627-.1088024-.5793348.2474378-1.1741531.4590365-1.7809036.6335329-.169552.0493124-.3521276.0330305-.5096386-.0454491-.1145861-.1064324-.1675944-.2611417-.1415662-.4131736.1245783-.5178443.0353915-.8731737-.5223795-1.1238323-1.0674097-.4806587-2.0881025-1.0618563-3.1583434-1.537006-1.2429518-.5508982-1.783735-1.7353294-1.2571085-2.9183833.2831326-.6431736.8989458-1.0136527 1.5897892-.8043113.6908434.2093413 1.3661145.5605389 2.0371386.8704191.4827409.2217365.9484939.4792815 1.4326506.7258084.9753915-1.7491018 1.0900602-3.4858084.6328012-5.2831138-.130241-.5123353-.2831326-1.0177844-.4077109-1.531497-.1684638-.7023952-.3071988-1.4116766-.4813253-2.1126946-.0673585-.3203298-.1743104-.6315537-.3185241-.9268862-.9711446-1.8152096-1.4779518-3.7791617-1.9621084-5.7472455-.2052711-.8373653-.016988-1.1968264.7885241-1.5797006 1.2948594-.6142515 2.6015161-1.206008 3.9199699-1.7752695.7219879-.3098802 1.2740964-.68862274 1.3774397-1.53700597.094433-.57625868.2446908-1.14253392.4487651-1.69125748.0523795-.15838324.2505723-.27544911.3822289-.40628743.0821084.16113773.2095181.31538922.235.48479042.0707831.44898204.0353916.92137725.1528916 1.35658683.1925301.72443113.5903313 1.301497 1.3335542 1.66508983 1.4383132.7051497 2.8412349 1.4805389 4.2583132 2.227006.4898193.2575449.7007531.5426347.5393675 1.1761676-.5533792 2.1212414-1.3422964 4.1776276-2.3528313 6.1328743-.2398815.4897901-.4249798 1.0032354-.5521085 1.531497-.3015361 1.1623952-.5421987 2.3413174-.8394879 3.5037126-.3114458 1.2670658-.0835241 2.4611377.4728313 3.7350898zm-6.0477108-10.4050898l.2406626-.1129342c0-.2272455.0608735-.4737724-.0099096-.6776048-.3595783-1.0577245-.0368072-2.0810179.1415663-3.1056886.1882831-1.1017964.9668975-1.7904191 1.8870783-1.8909581 1.2302108-.1377245 2.0994277.8993414 2.2523192 1.9942515.1528916 1.0949102.3539157 2.2035929-.0368072 3.2971258-.0396385.1143114-.0693675.3181437-.008494.36497.1415663.1074252.4431025.2451497.4940663.1941917.4685843-.4696408.9796386-.9296408 1.3165663-1.4846707.4246988-.6996407.683765-1.4929341 1.0390964-2.2338922.2293373-.4737725.2151807-.8869461-.2180121-1.2243713-.9640663-.7492215-1.9465361-1.4764072-2.9035241-2.2311377-.9159337-.7230539-1.8403614-.6720958-2.7633735-.0592215-1.1325301.746467-2.2480723 1.5025748-3.3494578 2.2848503-.4374398.3098802-.4530121.7271856-.2151807 1.211976.2958735.605988.4459337 1.2849701.7842771 1.8647904.3765662.6431737.8932831 1.2092216 1.3491265 1.8083234z" mask="url(#b)"/>
    <path fill="#333" fill-rule="nonzero" d="M66.1015625 12.4667969v24.609375h-1.0253906c-.390627 0-.6201169-.2294899-.6884766-.6884766V11.4414062c0-.4589866.2294899-.6884765.6884766-.6884765h6.3720703c.4589867 0 .6884766.2294899.6884766.6884765v24.9462891c-.0683598.4589867-.2978497.6884766-.6884766.6884766h-1.0253906v-24.609375h-4.3212891zm12.7441406-2.73925784h1.6992188c1.9238377 0 3.178708 4.78510844 3.7646484 14.35546874l-.051558.9118517c-.5267389 8.5132337-2.1062182 12.7697889-4.7384811 12.7697889-2.5488408 0-4.0283182-4.6728048-4.4384765-14.0185546v-1.0253907l.1126838-1.3317154c.7045875-7.7743359 1.9218984-11.66144864 3.6519646-11.66144864zm.6738281 1.37695314c-1.8164153 2.2168079-2.7246093 5.7470461-2.7246093 10.5908203v3.4130859l.0367374.8698422c.2759179 5.6826874 1.1718673 9.0401694 2.6878719 10.0725406h.6884766c1.5918048-3.0371245 2.3876953-6.9091561 2.3876953-11.6162109v-1.7138672c0-6.0840148-1.0253803-9.9560464-3.0761719-11.6162109zm12.3925782 25.4443359c-.2441419.0097657-.4931628.0146485-.7470703.0146485-1.259772 0-2.2851523-.683587-3.0761719-2.0507813v-.6884765c0-.3808613.2246071-.6054685.6738281-.6738282l.316299.3566277c.8015072.8950647 1.2673592 1.3425911 1.3975682 1.3425911.6543001-.0195314 1.4111285-.2148419 2.2705078-.5859375 1.6894616-.9375047 2.5341797-2.1630784 2.5341797-3.6767578v-2.0507813c0-1.6699302-1.1279184-3.1494076-3.3837891-4.4384766-.5468777-.7617225-.4443397-1.4501922.3076172-2.0654296 2.0507915-1.3671944 3.0761719-3.0761617 3.0761719-5.1269532v-.6738281c0-1.767587-.6835869-3.1933539-2.0507812-4.2773437-.781254-.5468778-1.5331996-.8398436-2.2558594-.8789063h-.6884766l-1.7138672 1.7138672H87.546875c.3125016-2.2851677 1.3378819-3.42773438 3.0761719-3.42773438h.6884765c.2246105 0 .4443349.04394488.6591797.13183594 2.6757947.46875235 4.3505826 2.71482364 5.0244141 6.73828124v.6738281c0 1.9238378-1.1425667 4.0917849-3.4277344 6.5039063 1.5234451 0 2.6660118 1.9335744 3.4277344 5.8007812v.6884766c-.8203166 3.8867382-2.5146356 6.1035129-5.0830078 6.6503906zm9.3749996-26.82128904c.458987.07812539.688477.30761524.688477.68847654v10.9423828h3.413086V10.4160156c.06836-.45898664.297849-.68847654.688476-.68847654l1.025391.68847654-.141642 2.4271376c-.139948 2.5886789-.20992 4.6262996-.20992 6.1129015v17.7832031c0 .4589867-.224608.6884766-.673829.6884766h-.351562c-.449221 0-.673828-.2294899-.673828-.6884766v-8.5546875l.005264-.4550183c.024566-1.1236579.135116-2.6809581.33165-4.6719348h-3.413086v13.6816406c0 .4589867-.22949.6884766-.688477.6884766h-.336914c-.458986 0-.688476-.2294899-.688476-.6884766V22.3837891c0-.2343762.112303-.3515625.336914-.3515625 0-.2246105-.112304-.3369141-.336914-.3369141l.336914-1.7138672v-9.5654297c.078125-.45898664.307615-.68847654.688476-.68847654zm14.150391 0c.94727 0 1.860347 4.56050124 2.739258 13.68164064.312501 0 .996088 4.4433149 2.050781 13.3300781l-.688477.3369141c-.800785 0-1.484372-3.1884447-2.050781-9.5654297h-3.076172c-.390627 0-1.074213 3.1884447-2.050781 9.5654297h-.673828c-.458987 0-.688477-.2294899-.688477-.6884766l1.586618-11.1035087c1.336645-9.1775521 2.174955-14.3630652 2.514945-15.55664754h.336914zm.351562 6.50390624h-.351562l-.004205.2165624c-.047652 1.3383747-.500348 4.5669407-1.3581 9.6857814h3.076172l-.301688-1.7914755c-.707081-4.2698544-1.060617-6.9734545-1.060617-8.1108683zm15.776368 20.8447266c0 .4589866-.22949.6884765-.688477.6884765-.449221 0-.673828-.2294899-.673828-.6884765V18.6191406h-.351563l-.080122.5910959c-.357416 2.5649324-.672503 3.8473807-.945268 3.8473807l-.323094 1.8655603c-1.508964 8.5610206-2.651255 12.8414709-3.426906 12.8414709-.458987 0-.688477-.2294899-.688477-.6884765V10.0791016h1.025391c.380861 0 .610351.2246071.688476.6738281v17.4316406h.336915l.065353-.5205462c.347233-2.4777225 1.580321-8.3393152 3.699295-17.5849225h1.362305v26.9970703zm-6.09375-30.30761721c.117188.51758071.380857.89843628.791015 1.14257812.410159.24414185 1.000973.36621094 1.772461.36621094.771488 0 1.35742-.12206909 1.757813-.36621094.410158-.23437617.673827-.61523174.791015-1.14257812h.541993c-.13672.94727036-.468748 1.66015385-.996094 2.13867187-.527347.48828369-1.225582.73242188-2.094727.73242188-.859379 0-1.552731-.24413819-2.080078-.73242188-.537112-.48828369-.878905-1.20116718-1.02539-2.13867187h.541992zm24.287109 2.28515625c1.464851 0 2.377928 1.02538036 2.739258 3.07617186 0 .449221-.22949.6738281-.688477.6738281l-2.050781-2.0507812h-.688477c-1.435554.1953135-2.343748 3.9550415-2.724609 11.2792969v1.7138672c0 8.203166.908194 12.3046874 2.724609 12.3046874.224611 0 1.025384-.5712833 2.402344-1.7138671h.336914c.458987.0781254.688477.3076152.688477.6884765-.673832 1.6015705-1.699212 2.4023438-3.076172 2.4023438h-.351563c-2.958999 0-4.438476-4.3310114-4.438476-12.9931641v-2.0507812l.005696-.8738649c.110134-8.3041823 1.817204-12.45621326 5.121257-12.45621326zm6.591797.67382812h4.790039c.449221.07812539.673828.30761524.673828.68847654v.3369141c0 .4589867-.224607.6884765-.673828.6884765h-4.101563v9.9169922h4.101563c.449221.0683598.673828.2929669.673828.6738282v.6884765l-1.699219.3369141h-3.076172v6.1523437c0 1.4843825-.117186 3.7646331-.351562 6.8408203h4.453125c.449221.0683598.673828.2978497.673828.6884766 0 .4589867-.224607.6884766-.673828.6884766h-5.81543V10.7529297c0-.3222672.341794-.6640607 1.025391-1.02539064zm9.785156 25.83984374c1.816416-1.2304749 2.72461-3.1689321 2.72461-5.8154297 0-2.4609498-.908194-4.5117105-2.72461-6.1523437v11.9677734zm-.102539-24.3457031l.102539 9.9902344c2.958999 2.8613424 4.438477 5.7079936 4.438477 8.540039 0 3.623065-1.479478 6.1279228-4.438477 7.5146485-.58594 0-1.09863-.3466763-1.538086-1.0400391-.156251-.1074224-.253906-.2978502-.292968-.5712891V10.1962891c0-.45898671.229489-.6884766.688476-.6884766h5.126953c.449221 0 .673828.22948989.673828.6884766v.336914c0 .390627-.224607.6201169-.673828.6884766h-4.086914zm15.073242-1.8310547c.537112 0 .878906.6835869 1.025391 2.0507812v5.1269532l-.336914 4.1015625c.22461 0 .336914.1123035.336914.336914-.224611.4003927-.336914.8593724-.336914 1.3769532v15.0439453h-1.376953V26.1337891h-.336914l-.700752 1.9946525c-2.203378 6.1995567-3.566462 9.2992928-4.089287 9.2992928l-.673828-.3515625.007343-.1524434c.11995-1.3639832 1.709285-5.644185 4.768047-12.8407207-2.275402-2.1093855-3.413086-4.3847534-3.413086-6.8261719.507815-5.2441668 2.104479-7.8662109 4.790039-7.8662109h.336914zm-.688476 1.7138672h-.336914c-1.591805 1.2207092-2.387696 3.27147-2.387696 6.1523437 0 2.275402.908194 4.0966729 2.72461 5.4638672V11.1044922z"/>
  </g>
</svg>
