<svg xmlns="http://www.w3.org/2000/svg" viewBox="0 0 92.69 82.52">
  <title>Нетрадиционная медицина</title>
  <g>
    <path d="M77 8L53.08 32H51q1-8.71-4.72-19.26L45 10.32l-2.3 1.49a48.66 48.66 0 0 0-6.7 5.24C30.42 8.94 20.94 3.42 7.6.57L5 0l-.4 2.69C3 14.78 4.25 24.59 8.24 32H0v4a44.82 44.82 0 0 0 23.8 39.57c-5.28.74-8.55 1.75-8.55 2.87 0 2.25 13.22 4.08 29.53 4.08s29.52-1.83 29.52-4.08c0-1.12-3.27-2.13-8.55-2.87A44.8 44.8 0 0 0 89.55 36v-4H79.11L90 21.06A9.2 9.2 0 1 0 77 8zm9.48 9.48L72 32H60.15l20.37-20.42a4.2 4.2 0 1 1 6 5.94zM44.78 75.8A39.77 39.77 0 0 1 5 37h79.54a39.75 39.75 0 0 1-39.76 38.8zM9.25 6.08C20.35 8.9 28.08 13.83 32.52 21a21.68 21.68 0 0 0-4.15 8.94l-12.94-16 10 18H14.12C9.81 25.9 8.17 17.22 9.25 6.08zm33.91 11.5C45.69 22.9 46.6 27.65 45.91 32h-4.73l.22-1.39 1.27-7.94-1.83 5.29-1.39 4h-6.33c0-.25 0-.51.08-.77a15.4 15.4 0 0 1 1.85-5 19.78 19.78 0 0 1 1.73-2.55 26.11 26.11 0 0 1 1.81-2.08 38.37 38.37 0 0 1 4.57-3.98z" />
  </g>
</svg>
